{
        "href": "https://api.spotify.com/v1/me/top/tracks?limit=5&offset=5",
        "limit": 5,
        "next": "https://api.spotify.com/v1/me/top/tracks?limit=5&offset=10",
        "offset": 5,
        "previous": "https://api.spotify.com/v1/me/top/tracks?limit=5&offset=0",
        "total": 27,
        "items": [
            {
                "album": {
                    "album_type": "ALBUM",
                    "total_tracks": 8,
                    "external_urls": {
                        "spotify": "https://open.spotify.com/album/4lGKsta6BzDVgzKfcSCC7E"
                    },
                    "href": "https://api.spotify.com/v1/albums/4lGKsta6BzDVgzKfcSCC7E",
                    "id": "4lGKsta6BzDVgzKfcSCC7E",
                    "images": [
                        {
                            "url": "https://i.scdn.co/image/ab67616d0000b273ce9b55302f3fa4411499553d",
                            "height": 640,
                            "width": 640
                        },
                        {
                            "url": "https://i.scdn.co/image/ab67616d00001e02ce9b55302f3fa4411499553d",
                            "height": 300,
                            "width": 300
                        },
                        {
                            "url": "https://i.scdn.co/image/ab67616d00004851ce9b55302f3fa4411499553d",
                            "height": 64,
                            "width": 64
                        }
                    ],
                    "name": "Snitches Get Stitches",
                    "release_date": "2020-05-09",
                    "release_date_precision": "day",
                    "type": "album",
                    "uri": "spotify:album:4lGKsta6BzDVgzKfcSCC7E",
                    "artists": [
                        {
                            "external_urls": {
                                "spotify": "https://open.spotify.com/artist/4PULA4EFzYTrxYvOVlwpiQ"
                            },
                            "href": "https://api.spotify.com/v1/artists/4PULA4EFzYTrxYvOVlwpiQ",
                            "id": "4PULA4EFzYTrxYvOVlwpiQ",
                            "name": "Sidhu Moose Wala",
                            "type": "artist",
                            "uri": "spotify:artist:4PULA4EFzYTrxYvOVlwpiQ"
                        }
                    ]
                },
                "artists": [
                    {
                        "external_urls": {
                            "spotify": "https://open.spotify.com/artist/4PULA4EFzYTrxYvOVlwpiQ"
                        },
                        "href": "https://api.spotify.com/v1/artists/4PULA4EFzYTrxYvOVlwpiQ",
                        "id": "4PULA4EFzYTrxYvOVlwpiQ",
                        "name": "Sidhu Moose Wala",
                        "type": "artist",
                        "uri": "spotify:artist:4PULA4EFzYTrxYvOVlwpiQ"
                    }
                ],
                "disc_number": 1,
                "duration_ms": 203720,
                "explicit": false,
                "external_ids": {
                    "isrc": "INU251900599"
                },
                "external_urls": {
                    "spotify": "https://open.spotify.com/track/0TYsZbl0ryJSUvyQeeLBRG"
                },
                "href": "https://api.spotify.com/v1/tracks/0TYsZbl0ryJSUvyQeeLBRG",
                "id": "0TYsZbl0ryJSUvyQeeLBRG",
                "name": "Aj Kal Ve",
                "popularity": 60,
                "preview_url": "https://p.scdn.co/mp3-preview/0fbf9b395c8a0130a057f0612969fc983465b556?cid=cfe923b2d660439caf2b557b21f31221",
                "track_number": 1,
                "type": "track",
                "uri": "spotify:track:0TYsZbl0ryJSUvyQeeLBRG",
                "is_local": false
            },
            {
                "album": {
                    "album_type": "SINGLE",
                    "total_tracks": 1,
                    "external_urls": {
                        "spotify": "https://open.spotify.com/album/54Ae2VjBhWonYo029f32Rb"
                    },
                    "href": "https://api.spotify.com/v1/albums/54Ae2VjBhWonYo029f32Rb",
                    "id": "54Ae2VjBhWonYo029f32Rb",
                    "images": [
                        {
                            "url": "https://i.scdn.co/image/ab67616d0000b27373fc2ceea3271d783e1489dc",
                            "height": 640,
                            "width": 640
                        },
                        {
                            "url": "https://i.scdn.co/image/ab67616d00001e0273fc2ceea3271d783e1489dc",
                            "height": 300,
                            "width": 300
                        },
                        {
                            "url": "https://i.scdn.co/image/ab67616d0000485173fc2ceea3271d783e1489dc",
                            "height": 64,
                            "width": 64
                        }
                    ],
                    "name": "Motti Motti Akh",
                    "release_date": "2020-02-29",
                    "release_date_precision": "day",
                    "type": "album",
                    "uri": "spotify:album:54Ae2VjBhWonYo029f32Rb",
                    "artists": [
                        {
                            "external_urls": {
                                "spotify": "https://open.spotify.com/artist/1CluO4PWr2z45POcQ92ZPs"
                            },
                            "href": "https://api.spotify.com/v1/artists/1CluO4PWr2z45POcQ92ZPs",
                            "id": "1CluO4PWr2z45POcQ92ZPs",
                            "name": "Shivjot",
                            "type": "artist",
                            "uri": "spotify:artist:1CluO4PWr2z45POcQ92ZPs"
                        },
                        {
                            "external_urls": {
                                "spotify": "https://open.spotify.com/artist/55kkrbuMkdzPGD7YGA6xrJ"
                            },
                            "href": "https://api.spotify.com/v1/artists/55kkrbuMkdzPGD7YGA6xrJ",
                            "id": "55kkrbuMkdzPGD7YGA6xrJ",
                            "name": "Gurlez Akhtar",
                            "type": "artist",
                            "uri": "spotify:artist:55kkrbuMkdzPGD7YGA6xrJ"
                        }
                    ]
                },
                "artists": [
                    {
                        "external_urls": {
                            "spotify": "https://open.spotify.com/artist/1CluO4PWr2z45POcQ92ZPs"
                        },
                        "href": "https://api.spotify.com/v1/artists/1CluO4PWr2z45POcQ92ZPs",
                        "id": "1CluO4PWr2z45POcQ92ZPs",
                        "name": "Shivjot",
                        "type": "artist",
                        "uri": "spotify:artist:1CluO4PWr2z45POcQ92ZPs"
                    },
                    {
                        "external_urls": {
                            "spotify": "https://open.spotify.com/artist/55kkrbuMkdzPGD7YGA6xrJ"
                        },
                        "href": "https://api.spotify.com/v1/artists/55kkrbuMkdzPGD7YGA6xrJ",
                        "id": "55kkrbuMkdzPGD7YGA6xrJ",
                        "name": "Gurlez Akhtar",
                        "type": "artist",
                        "uri": "spotify:artist:55kkrbuMkdzPGD7YGA6xrJ"
                    }
                ],
                "disc_number": 1,
                "duration_ms": 271200,
                "explicit": false,
                "external_ids": {
                    "isrc": "INS182000404"
                },
                "external_urls": {
                    "spotify": "https://open.spotify.com/track/0v3H1kONrK6OKwE1elBYhZ"
                },
                "href": "https://api.spotify.com/v1/tracks/0v3H1kONrK6OKwE1elBYhZ",
                "id": "0v3H1kONrK6OKwE1elBYhZ",
                "name": "Motti Motti Akh",
                "popularity": 53,
                "preview_url": "https://p.scdn.co/mp3-preview/bb638712c2ed5418e9352a89608430007371ab91?cid=cfe923b2d660439caf2b557b21f31221",
                "track_number": 1,
                "type": "track",
                "uri": "spotify:track:0v3H1kONrK6OKwE1elBYhZ",
                "is_local": false
            },
            {
                "album": {
                    "album_type": "SINGLE",
                    "total_tracks": 1,
                    "external_urls": {
                        "spotify": "https://open.spotify.com/album/2TxbHJz8I5HmEeMBj5gsX7"
                    },
                    "href": "https://api.spotify.com/v1/albums/2TxbHJz8I5HmEeMBj5gsX7",
                    "id": "2TxbHJz8I5HmEeMBj5gsX7",
                    "images": [
                        {
                            "url": "https://i.scdn.co/image/ab67616d0000b273ffd12b69b2bc601e98515b21",
                            "height": 640,
                            "width": 640
                        },
                        {
                            "url": "https://i.scdn.co/image/ab67616d00001e02ffd12b69b2bc601e98515b21",
                            "height": 300,
                            "width": 300
                        },
                        {
                            "url": "https://i.scdn.co/image/ab67616d00004851ffd12b69b2bc601e98515b21",
                            "height": 64,
                            "width": 64
                        }
                    ],
                    "name": "Jhanjra",
                    "release_date": "2020-07-13",
                    "release_date_precision": "day",
                    "type": "album",
                    "uri": "spotify:album:2TxbHJz8I5HmEeMBj5gsX7",
                    "artists": [
                        {
                            "external_urls": {
                                "spotify": "https://open.spotify.com/artist/3mnR9SJ3hfV6EcrGKH44H9"
                            },
                            "href": "https://api.spotify.com/v1/artists/3mnR9SJ3hfV6EcrGKH44H9",
                            "id": "3mnR9SJ3hfV6EcrGKH44H9",
                            "name": "Karan Randhawa",
                            "type": "artist",
                            "uri": "spotify:artist:3mnR9SJ3hfV6EcrGKH44H9"
                        }
                    ]
                },
                "artists": [
                    {
                        "external_urls": {
                            "spotify": "https://open.spotify.com/artist/3mnR9SJ3hfV6EcrGKH44H9"
                        },
                        "href": "https://api.spotify.com/v1/artists/3mnR9SJ3hfV6EcrGKH44H9",
                        "id": "3mnR9SJ3hfV6EcrGKH44H9",
                        "name": "Karan Randhawa",
                        "type": "artist",
                        "uri": "spotify:artist:3mnR9SJ3hfV6EcrGKH44H9"
                    }
                ],
                "disc_number": 1,
                "duration_ms": 212593,
                "explicit": false,
                "external_ids": {
                    "isrc": "ING501802312"
                },
                "external_urls": {
                    "spotify": "https://open.spotify.com/track/17YnD2vTglJNglWvHq9S3E"
                },
                "href": "https://api.spotify.com/v1/tracks/17YnD2vTglJNglWvHq9S3E",
                "id": "17YnD2vTglJNglWvHq9S3E",
                "name": "Jhanjra",
                "popularity": 57,
                "preview_url": "https://p.scdn.co/mp3-preview/4e0a32bdadd16d3964911d7096058e8744c661c4?cid=cfe923b2d660439caf2b557b21f31221",
                "track_number": 1,
                "type": "track",
                "uri": "spotify:track:17YnD2vTglJNglWvHq9S3E",
                "is_local": false
            },
            {
                "album": {
                    "album_type": "SINGLE",
                    "total_tracks": 1,
                    "external_urls": {
                        "spotify": "https://open.spotify.com/album/6T8oJ9DnuJZAT3gDe507cO"
                    },
                    "href": "https://api.spotify.com/v1/albums/6T8oJ9DnuJZAT3gDe507cO",
                    "id": "6T8oJ9DnuJZAT3gDe507cO",
                    "images": [
                        {
                            "url": "https://i.scdn.co/image/ab67616d0000b27373ce70692d448dd390848676",
                            "height": 640,
                            "width": 640
                        },
                        {
                            "url": "https://i.scdn.co/image/ab67616d00001e0273ce70692d448dd390848676",
                            "height": 300,
                            "width": 300
                        },
                        {
                            "url": "https://i.scdn.co/image/ab67616d0000485173ce70692d448dd390848676",
                            "height": 64,
                            "width": 64
                        }
                    ],
                    "name": "Ishq Tera",
                    "release_date": "2019-09-10",
                    "release_date_precision": "day",
                    "type": "album",
                    "uri": "spotify:album:6T8oJ9DnuJZAT3gDe507cO",
                    "artists": [
                        {
                            "external_urls": {
                                "spotify": "https://open.spotify.com/artist/5rQoBDKFnd1n6BkdbgVaRL"
                            },
                            "href": "https://api.spotify.com/v1/artists/5rQoBDKFnd1n6BkdbgVaRL",
                            "id": "5rQoBDKFnd1n6BkdbgVaRL",
                            "name": "Guru Randhawa",
                            "type": "artist",
                            "uri": "spotify:artist:5rQoBDKFnd1n6BkdbgVaRL"
                        }
                    ]
                },
                "artists": [
                    {
                        "external_urls": {
                            "spotify": "https://open.spotify.com/artist/5rQoBDKFnd1n6BkdbgVaRL"
                        },
                        "href": "https://api.spotify.com/v1/artists/5rQoBDKFnd1n6BkdbgVaRL",
                        "id": "5rQoBDKFnd1n6BkdbgVaRL",
                        "name": "Guru Randhawa",
                        "type": "artist",
                        "uri": "spotify:artist:5rQoBDKFnd1n6BkdbgVaRL"
                    }
                ],
                "disc_number": 1,
                "duration_ms": 211931,
                "explicit": false,
                "external_ids": {
                    "isrc": "INS181904676"
                },
                "external_urls": {
                    "spotify": "https://open.spotify.com/track/1aUfggX5E0nKDikNuiDQ3D"
                },
                "href": "https://api.spotify.com/v1/tracks/1aUfggX5E0nKDikNuiDQ3D",
                "id": "1aUfggX5E0nKDikNuiDQ3D",
                "name": "Ishq Tera",
                "popularity": 60,
                "preview_url": "https://p.scdn.co/mp3-preview/5c461733c7144c818aaa2d36a781da398b9317c6?cid=cfe923b2d660439caf2b557b21f31221",
                "track_number": 1,
                "type": "track",
                "uri": "spotify:track:1aUfggX5E0nKDikNuiDQ3D",
                "is_local": false
            },
            {
                "album": {
                    "album_type": "SINGLE",
                    "total_tracks": 1,
                    "external_urls": {
                        "spotify": "https://open.spotify.com/album/3KSE24dHweGL1Ent5wkmYZ"
                    },
                    "href": "https://api.spotify.com/v1/albums/3KSE24dHweGL1Ent5wkmYZ",
                    "id": "3KSE24dHweGL1Ent5wkmYZ",
                    "images": [
                        {
                            "url": "https://i.scdn.co/image/ab67616d0000b2735072a511006a748b38a57ba8",
                            "height": 640,
                            "width": 640
                        },
                        {
                            "url": "https://i.scdn.co/image/ab67616d00001e025072a511006a748b38a57ba8",
                            "height": 300,
                            "width": 300
                        },
                        {
                            "url": "https://i.scdn.co/image/ab67616d000048515072a511006a748b38a57ba8",
                            "height": 64,
                            "width": 64
                        }
                    ],
                    "name": "Bachalo",
                    "release_date": "2020-10-27",
                    "release_date_precision": "day",
                    "type": "album",
                    "uri": "spotify:album:3KSE24dHweGL1Ent5wkmYZ",
                    "artists": [
                        {
                            "external_urls": {
                                "spotify": "https://open.spotify.com/artist/6zZrFenNe3YPttxZsnQQs1"
                            },
                            "href": "https://api.spotify.com/v1/artists/6zZrFenNe3YPttxZsnQQs1",
                            "id": "6zZrFenNe3YPttxZsnQQs1",
                            "name": "Akhil",
                            "type": "artist",
                            "uri": "spotify:artist:6zZrFenNe3YPttxZsnQQs1"
                        }
                    ]
                },
                "artists": [
                    {
                        "external_urls": {
                            "spotify": "https://open.spotify.com/artist/6zZrFenNe3YPttxZsnQQs1"
                        },
                        "href": "https://api.spotify.com/v1/artists/6zZrFenNe3YPttxZsnQQs1",
                        "id": "6zZrFenNe3YPttxZsnQQs1",
                        "name": "Akhil",
                        "type": "artist",
                        "uri": "spotify:artist:6zZrFenNe3YPttxZsnQQs1"
                    }
                ],
                "disc_number": 1,
                "duration_ms": 165108,
                "explicit": false,
                "external_ids": {
                    "isrc": "FRS182073080"
                },
                "external_urls": {
                    "spotify": "https://open.spotify.com/track/1v8NfOckFEnck9gp7iyetm"
                },
                "href": "https://api.spotify.com/v1/tracks/1v8NfOckFEnck9gp7iyetm",
                "id": "1v8NfOckFEnck9gp7iyetm",
                "name": "Bachalo",
                "popularity": 64,
                "preview_url": "https://p.scdn.co/mp3-preview/e0f7f22459b494c0b1f19ebb182add3eeb58eb4b?cid=cfe923b2d660439caf2b557b21f31221",
                "track_number": 1,
                "type": "track",
                "uri": "spotify:track:1v8NfOckFEnck9gp7iyetm",
                "is_local": false
            }
        ]
}